Wissen macht R! - 5 Relitest
…
# hier kommt dann der eigentliche Relitest. in test_icr muss ganz vorne der Variblenname der Kodiereinheit (CU) stehen und danach für die CODER. 

RelitestOutput <- RelitestDaten |> 
  tidycomm::test_icr(unit_var = CU, coder_var = CODER, Medium:Kurios, kripp_alpha = TRUE, lotus = TRUE, s_lotus = TRUE, na.omit = TRUE)

RelitestOutput # hier den Output des Relitest mal schnell in R angucken
## # A tibble: 39 × 10
##   Variable   n_Units n_Coders n_Categories Level   Agreement Holst…¹ Kripp…² Lotus S_Lotus
##   <chr>        <int>    <int>        <int> <chr>       <dbl>   <dbl>   <dbl> <dbl>   <dbl>
## 1 Medium          10       19            5 nominal       1     1       1     1       1    
## 2 ThemSchwer      10       19            6 nominal       0.5   0.860   0.794 0.911   0.893
## 3 Titel           10       19           36 nominal       0.1   0.665   0.643 0.795   0.789
## 4 Worte           10       19           42 nominal       0     0.378   0.343 0.589   0.579
## 5 Worte_gr        10       19            5 nominal       0.2   0.850   0.780 0.921   0.901
## 6 ArtLang         10       19            2 nominal       0.7   0.959   0.915 0.979   0.958
## # … with 33 more rows, and abbreviated variable names ¹​Holstis_CR, ²​Krippendorffs_Alpha
…
